; Engine configuration file.
; It's best edited using the editor UI and not directly,
; since the parameters that go here are not all obvious.
;
; Format:
;   [section] ; section goes between []
;   param=value ; assign values to parameters

config_version=4

_global_script_classes=[ {
"base": "Area2D",
"class": "Pallette",
"language": "GDScript",
"path": "res://Pong/paddle.gd"
} ]
_global_script_class_icons={
"Pallette": ""
}

[application]

config/name="Pong"
run/main_scene="res://Pong/pong.tscn"
config/icon="res://icon.png"

[display]

window/size/width=640
window/size/height=400
window/stretch/mode="viewport"
window/stretch/aspect="keep"
stretch_2d=true

[gdnative]

singletons=[  ]

[input]

left_move_down={
"deadzone": 0.5,
"events": [ Object(InputEventKey,"resource_local_to_scene":false,"resource_name":"","device":0,"alt":false,"shift":false,"control":false,"meta":false,"command":false,"pressed":false,"scancode":90,"unicode":0,"echo":false,"script":null)
 ]
}
left_move_up={
"deadzone": 0.5,
"events": [ Object(InputEventKey,"resource_local_to_scene":false,"resource_name":"","device":0,"alt":false,"shift":false,"control":false,"meta":false,"command":false,"pressed":false,"scancode":65,"unicode":0,"echo":false,"script":null)
 ]
}
right_move_down={
"deadzone": 0.5,
"events": [ Object(InputEventKey,"resource_local_to_scene":false,"resource_name":"","device":0,"alt":false,"shift":false,"control":false,"meta":false,"command":false,"pressed":false,"scancode":16777234,"unicode":0,"echo":false,"script":null)
 ]
}
right_move_up={
"deadzone": 0.5,
"events": [ Object(InputEventKey,"resource_local_to_scene":false,"resource_name":"","device":0,"alt":false,"shift":false,"control":false,"meta":false,"command":false,"pressed":false,"scancode":16777232,"unicode":0,"echo":false,"script":null)
 ]
}

[input_devices]

pointing/emulate_touch_from_mouse=true

[rendering]

quality/driver/driver_name="GLES2"
viewport/default_clear_color=Color( 0, 0, 0, 1 )
